R Screencasts - Data science for economists exams
…
mobility %>% count(sub_region_2, sort = T)

# A tibble: 172 × 2
   sub_region_2                    n
   <chr>                       <int>
 1 ""                           3324
 2 "Bergen Municipality"         277
 3 "Trondheim Municipality"      277
 4 "Ullensaker Municipality"     277
 5 "Stavanger Municipality"      275
 6 "Drammen Municipality"        274
 7 "Kristiansand Municipality"   274
 8 "Lillestrøm"                  273
 9 "Tromsø Municipality"         273
10 "Ålesund Municipality"        271
# … with 162 more rows
…
