Kathy’s coding club - Untitled
…
df <- readr::read_csv("https://www.metoffice.gov.uk/hadobs/hadcrut5/data/current/analysis/diagnostics/HadCRUT.5.0.1.0.analysis.summary_series.global.monthly.csv")

Rows: 2066 Columns: 4

-- Column specification --------------------------------------------------------
Delimiter: ","
chr (1): Time
dbl (3): Anomaly (deg C), Lower confidence limit (2.5%), Upper confidence li...

i Use `spec()` to retrieve the full column specification for this data.
i Specify the column types or set `show_col_types = FALSE` to quiet this message.

df

# A tibble: 2,066 x 4
   Time    `Anomaly (deg C)` `Lower confidence limit (2.5%)` `Upper confidence~`
   <chr>               <dbl>                           <dbl>               <dbl>
 1 1850-01            -0.675                          -0.982             -0.367 
 2 1850-02            -0.333                          -0.701              0.0341
 3 1850-03            -0.591                          -0.934             -0.249 
 4 1850-04            -0.589                          -0.898             -0.279 
 5 1850-05            -0.508                          -0.761             -0.255 
 6 1850-06            -0.344                          -0.609             -0.0790
 7 1850-07            -0.160                          -0.397              0.0776
 8 1850-08            -0.208                          -0.465              0.0495
 9 1850-09            -0.385                          -0.648             -0.122 
10 1850-10            -0.533                          -0.783             -0.284 
# ... with 2,056 more rows

df %>% colnames()

[1] "Time"                           "Anomaly (deg C)"               
[3] "Lower confidence limit (2.5%)"  "Upper confidence limit (97.5%)"

df <- df %>% 
  janitor::clean_names()

df

# A tibble: 2,066 x 4
   time    anomaly_deg_c lower_confidence_limit_2_5_percent upper_confidence_li~
   <chr>           <dbl>                              <dbl>                <dbl>
 1 1850-01        -0.675                             -0.982              -0.367 
 2 1850-02        -0.333                             -0.701               0.0341
 3 1850-03        -0.591                             -0.934              -0.249 
 4 1850-04        -0.589                             -0.898              -0.279 
 5 1850-05        -0.508                             -0.761              -0.255 
 6 1850-06        -0.344                             -0.609              -0.0790
 7 1850-07        -0.160                             -0.397               0.0776
 8 1850-08        -0.208                             -0.465               0.0495
 9 1850-09        -0.385                             -0.648              -0.122 
10 1850-10        -0.533                             -0.783              -0.284 
# ... with 2,056 more rows
…
df %>% 
  select(time)

# A tibble: 2,066 x 1
   time   
   <chr>  
 1 1850-01
 2 1850-02
 3 1850-03
 4 1850-04
 5 1850-05
 6 1850-06
 7 1850-07
 8 1850-08
 9 1850-09
10 1850-10
# ... with 2,056 more rows
…
