Kathy’s coding club - Chocolate_bar_ratings
…
i Use `spec()` to retrieve the full column specification for this data.
i Specify the column types or set `show_col_types = FALSE` to quiet this message.

theme_set(theme_light())

EDA

First we can have a look at the data we have read in - This gives us a tibble (similar to a dataframe) with 10 columns (3 numeric and 7 character) and 2,530 individual reviews.

df %>% view()

df %>% 
  count(company_location, sort = T)

# A tibble: 67 x 2
   company_location     n
   <chr>            <int>
 1 U.S.A.            1136
 2 Canada             177
 3 France             176
 4 U.K.               133
 5 Italy               78
 6 Belgium             63
 7 Ecuador             58
 8 Australia           53
 9 Switzerland         44
10 Germany             42
# ... with 57 more rows

df %>% 
  count(country_of_bean_origin, sort = T)

# A tibble: 62 x 2
   country_of_bean_origin     n
   <chr>                  <int>
 1 Venezuela                253
 2 Peru                     244
 3 Dominican Republic       226
 4 Ecuador                  219
 5 Madagascar               177
 6 Blend                    156
 7 Nicaragua                100
 8 Bolivia                   80
 9 Colombia                  79
10 Tanzania                  79
# ... with 52 more rows
…
What can we learn about the number of ingredients and cocoa percentage?

df %>% 
  select(ingredients)

# A tibble: 2,530 x 1
   ingredients
   <chr>      
 1 3- B,S,C   
 2 3- B,S,C   
 3 3- B,S,C   
 4 3- B,S,C   
 5 3- B,S,C   
 6 3- B,S,C   
 7 3- B,S,C   
 8 4- B,S,C,L 
 9 4- B,S,C,L 
10 4- B,S,C,L 
# ... with 2,520 more rows

df %>% 
  separate(ingredients, into = c("n_ingredients", "ingredients"), sep = "-") %>% 
  # select(n_ingredients, ingredients) %>% 
  mutate(n_ingredients = parse_number(n_ingredients))

# A tibble: 2,530 x 11
     ref company_manufacturer company_location review_date country_of_bean_orig~
   <dbl> <chr>                <chr>                  <dbl> <chr>                
 1  2454 5150                 U.S.A.                  2019 Tanzania             
 2  2458 5150                 U.S.A.                  2019 Dominican Republic   
 3  2454 5150                 U.S.A.                  2019 Madagascar           
 4  2542 5150                 U.S.A.                  2021 Fiji                 
 5  2546 5150                 U.S.A.                  2021 Venezuela            
 6  2546 5150                 U.S.A.                  2021 Uganda               
 7  2542 5150                 U.S.A.                  2021 India                
 8   797 A. Morin             France                  2012 Bolivia              
 9   797 A. Morin             France                  2012 Peru                 
10  1011 A. Morin             France                  2013 Panama               
# ... with 2,520 more rows, and 6 more variables:
#   specific_bean_origin_or_bar_name <chr>, cocoa_percent <chr>,
#   n_ingredients <dbl>, ingredients <chr>,
#   most_memorable_characteristics <chr>, rating <dbl>
…
Word model

df_characteristics <- df %>% 
  select(c(most_memorable_characteristics, rating)) %>% 
  separate_rows(most_memorable_characteristics, sep = ",") %>% 
  mutate(most_memorable_characteristics = str_squish(most_memorable_characteristics))

df_characteristics %>% 
  count(most_memorable_characteristics, sort = T)

# A tibble: 972 x 2
   most_memorable_characteristics     n
   <chr>                          <int>
 1 sweet                            273
 2 nutty                            261
 3 cocoa                            252
 4 roasty                           213
 5 earthy                           190
 6 creamy                           189
 7 sandy                            170
 8 fatty                            166
 9 floral                           146
10 intense                          141
# ... with 962 more rows
…
Warning: package 'textrecipes' was built under R version 4.1.2

df_characteristics_folds <- vfold_cv(df_characteristics)

glmnet_recipe <- 
  recipe(formula = rating ~ ., data = df_characteristics) %>% 
  step_tokenize(most_memorable_characteristics) %>% 
  step_tokenfilter(most_memorable_characteristics, max_tokens = 100) %>% 
  step_tf(most_memorable_characteristics) %>% 
  step_normalize(all_predictors(), -all_nominal())

glmnet_recipe %>% prep() %>% juice()

# A tibble: 7,065 x 101
   rating tf_most_memorable_~ tf_most_memorab~ tf_most_memorab~ tf_most_memorab~
    <dbl>               <dbl>            <dbl>            <dbl>            <dbl>
 1   3.25             -0.0764          -0.0653          -0.0818          -0.0519
 2   3.25             -0.0764          -0.0653          -0.0818          -0.0519
 3   3.25             -0.0764          -0.0653          -0.0818          -0.0519
 4   3.5              -0.0764          -0.0653          -0.0818          -0.0519
 5   3.5              -0.0764          -0.0653          -0.0818          -0.0519
 6   3.5              -0.0764          -0.0653          -0.0818          -0.0519
 7   3.75             -0.0764          -0.0653          -0.0818          -0.0519
 8   3.75             -0.0764          -0.0653          -0.0818          -0.0519
 9   3.75             -0.0764          -0.0653          -0.0818          -0.0519
10   3                -0.0764          -0.0653          -0.0818          -0.0519
# ... with 7,055 more rows, and 96 more variables:
#   tf_most_memorable_characteristics_banana <dbl>,
#   tf_most_memorable_characteristics_base <dbl>,
#   tf_most_memorable_characteristics_basic <dbl>,
#   tf_most_memorable_characteristics_berry <dbl>,
#   tf_most_memorable_characteristics_bitter <dbl>,
#   tf_most_memorable_characteristics_black <dbl>, ...
…
