R Screencasts - Untitled
…
df <- readxl::read_excel(here::here("data", "Global_REE_occurrence_database.xlsx"))

df <- df %>% 
  janitor::clean_names()

Where are the lithium deposits??

df %>% 
  separate_rows(commods, sep = ",") %>% 
  mutate(commods = str_squish(commods)) %>% 
  filter(commods == "Li") %>% 
  count(country, sort = T)

# A tibble: 22 x 2
   country                n
   <chr>              <int>
 1 Uzbekistan             9
 2 Russian Federation     7
 3 Canada                 4
 4 Kazakhstan             4
 5 China                  3
 6 Czech Republic         3
 7 Mongolia               3
 8 Mozambique             3
 9 Norway                 3
10 Tajikistan             3
# ... with 12 more rows
…
