R Screencasts - Recreating Ed Hawkins’ Show Your Stripes graphic
…
The x-axis is a bit of a mess! That’s because th time variable is stored as a character, rather than a date:

df %>% select(time)

# A tibble: 2,073 × 1
   time   
   <chr>  
 1 1850-01
 2 1850-02
 3 1850-03
 4 1850-04
 5 1850-05
 6 1850-06
 7 1850-07
 8 1850-08
 9 1850-09
10 1850-10
# … with 2,063 more rows
…
